(footprint "TOTX1350VF" (version 20211014) (generator pcbnew)
  (layer "F.Cu")
  (tedit 0)
  (descr "TOTX1350(V,F)-5")
  (tags "Undefined or Miscellaneous")
  (attr through_hole)
  (fp_text reference "U**" (at -2.54 -3.85) (layer "F.SilkS")
    (effects (font (size 1.27 1.27) (thickness 0.254)))
    (tstamp 61deb07b-7611-41f2-916c-67a177b546c4)
  )
  (fp_text value "TOTX1350VF" (at -2.54 -3.85) (layer "F.SilkS") hide
    (effects (font (size 1.27 1.27) (thickness 0.254)))
    (tstamp 44375d4a-2bf0-46f1-b2fa-9bbbb84fbeba)
  )
  (fp_text user "${REFERENCE}" (at -2.54 -3.85) (layer "F.Fab")
    (effects (font (size 1.27 1.27) (thickness 0.254)))
    (tstamp 0eb90cc5-f66c-4f19-ba6a-e2176817090f)
  )
  (fp_line (start 0 2.1) (end 0 2.1) (layer "F.SilkS") (width 0.2) (tstamp 322da0ba-a86d-429d-ab15-bb0db3104e36))
  (fp_line (start -8.76 1.4) (end 4.16 1.4) (layer "F.SilkS") (width 0.2) (tstamp 404e4556-8d97-4cc3-aa23-be46f0f19240))
  (fp_line (start 4.16 1.4) (end 4.16 -9.1) (layer "F.SilkS") (width 0.2) (tstamp 53c7bcec-e14f-4aac-8334-9f571d215a45))
  (fp_line (start 0 2) (end 0 2) (layer "F.SilkS") (width 0.2) (tstamp 9454962b-e87f-4973-9da6-787307294790))
  (fp_line (start 0 2) (end 0 2) (layer "F.SilkS") (width 0.2) (tstamp 95ad9c18-5cef-4eed-a2ba-037fff1ee5ec))
  (fp_line (start 4.16 -9.1) (end -8.76 -9.1) (layer "F.SilkS") (width 0.2) (tstamp d6ee7597-b51d-41d6-ac49-323cfce009cf))
  (fp_line (start -8.76 -9.1) (end -8.76 1.4) (layer "F.SilkS") (width 0.2) (tstamp da86bb28-f4c1-4b3e-9d38-f223f8e70076))
  (fp_arc (start 0 2.1) (mid -0.05 2.05) (end 0 2) (layer "F.SilkS") (width 0.2) (tstamp 2979e3a0-3605-49e3-aa66-4b2a3861df27))
  (fp_arc (start 0 2) (mid 0.05 2.05) (end 0 2.1) (layer "F.SilkS") (width 0.2) (tstamp 579f52c4-4cc6-4de6-9d7b-555d07ae02a9))
  (fp_arc (start 0 2.1) (mid -0.05 2.05) (end 0 2) (layer "F.SilkS") (width 0.2) (tstamp eab031c0-9c3b-48cd-a6db-a44da25a5cc2))
  (fp_line (start -10.16 -10.1) (end 5.08 -10.1) (layer "F.CrtYd") (width 0.1) (tstamp 95c0a31b-7f46-4519-9cf2-f2fd73a4d0c0))
  (fp_line (start 5.08 -10.1) (end 5.08 2.4) (layer "F.CrtYd") (width 0.1) (tstamp ced692e6-3871-427c-a8d0-7d54075ec63c))
  (fp_line (start -10.16 2.4) (end -10.16 -10.1) (layer "F.CrtYd") (width 0.1) (tstamp dfc1ce93-3cf0-4be2-918f-5602c05b2d25))
  (fp_line (start 5.08 2.4) (end -10.16 2.4) (layer "F.CrtYd") (width 0.1) (tstamp fd505fa7-5c50-4195-bc8b-e7789cf5ed7c))
  (fp_line (start 4.16 1.4) (end 4.16 -9.1) (layer "F.Fab") (width 0.1) (tstamp 24f9ef43-0c5c-42ec-82c6-a3ea94e0b8b4))
  (fp_line (start 4.16 -9.1) (end -8.76 -9.1) (layer "F.Fab") (width 0.1) (tstamp 34d93e29-7670-4a9f-892b-6cc38920ddda))
  (fp_line (start -8.76 1.4) (end 4.16 1.4) (layer "F.Fab") (width 0.1) (tstamp 5ceca855-608f-4200-94f3-c97d4e54770d))
  (fp_line (start -8.76 -9.1) (end -8.76 1.4) (layer "F.Fab") (width 0.1) (tstamp 818cbc4d-63d5-4b66-9229-802d54204998))
  (pad "1" thru_hole circle (at -5.08 0) (size 1.303 1.303) (drill 0.76) (layers *.Cu *.Mask) (tstamp 3f56a0eb-c219-4c1d-a17b-7410e1eff383))
  (pad "2" thru_hole circle (at -2.54 0) (size 1.303 1.303) (drill 0.76) (layers *.Cu *.Mask) (tstamp a8235301-1032-4d29-b4f9-d2a37436df0f))
  (pad "3" thru_hole circle (at 0 0) (size 1.303 1.303) (drill 0.76) (layers *.Cu *.Mask) (tstamp 177e875f-4785-4de5-b99b-a835ba318a44))
  (pad "4" thru_hole circle (at 2.66 -3.85) (size 1.3 1.3) (drill 0.8) (layers *.Cu *.Mask) (tstamp c15f681a-7cc6-49d5-b675-d286e2093aaf))
  (pad "5" thru_hole circle (at -7.74 -3.85) (size 1.3 1.3) (drill 0.8) (layers *.Cu *.Mask) (tstamp 8ed6e134-49b2-4e8d-ac45-94d161b7de0d))
  (model "TOTX1350_V,F_.stp"
    (offset (xyz 0 0 0))
    (scale (xyz 1 1 1))
    (rotate (xyz 0 0 0))
  )
)
