(kicad_symbol_lib (version 20211014) (generator kicad_symbol_editor)
  (symbol "78601{brace}slash}1JC" (pin_names (offset 0.254) hide) (in_bom yes) (on_board yes)
    (property "Reference" "XMER" (id 0) (at 10.16 7.62 0)
      (effects (font (size 1.524 1.524)))
    )
    (property "Value" "78601{brace}slash}1JC" (id 1) (at 10.16 5.08 0)
      (effects (font (size 1.524 1.524)))
    )
    (property "Footprint" "786J_MUR" (id 2) (at 10.16 3.556 0)
      (effects (font (size 1.524 1.524)) hide)
    )
    (property "Datasheet" "" (id 3) (at 0 0 0)
      (effects (font (size 1.524 1.524)))
    )
    (property "ki_locked" "" (id 4) (at 0 0 0)
      (effects (font (size 1.27 1.27)))
    )
    (property "ki_fp_filters" "786J_MUR 786J_MUR-M 786J_MUR-L" (id 5) (at 0 0 0)
      (effects (font (size 1.27 1.27)) hide)
    )
    (symbol "78601{brace}slash}1JC_1_1"
      (polyline
        (pts
          (xy 7.62 -7.62)
          (xy 12.7 -7.62)
        )
        (stroke (width 0.127) (type default) (color 0 0 0 0))
        (fill (type none))
      )
      (polyline
        (pts
          (xy 7.62 -5.08)
          (xy 9.144 -5.08)
        )
        (stroke (width 0.127) (type default) (color 0 0 0 0))
        (fill (type none))
      )
      (polyline
        (pts
          (xy 7.62 0)
          (xy 9.144 0)
        )
        (stroke (width 0.127) (type default) (color 0 0 0 0))
        (fill (type none))
      )
      (polyline
        (pts
          (xy 7.62 2.54)
          (xy 7.62 -7.62)
        )
        (stroke (width 0.127) (type default) (color 0 0 0 0))
        (fill (type none))
      )
      (polyline
        (pts
          (xy 9.906 0)
          (xy 9.906 -5.08)
        )
        (stroke (width 0.127) (type default) (color 0 0 0 0))
        (fill (type none))
      )
      (polyline
        (pts
          (xy 10.414 -5.08)
          (xy 10.414 0)
        )
        (stroke (width 0.127) (type default) (color 0 0 0 0))
        (fill (type none))
      )
      (polyline
        (pts
          (xy 11.176 0)
          (xy 12.7 0)
        )
        (stroke (width 0.127) (type default) (color 0 0 0 0))
        (fill (type none))
      )
      (polyline
        (pts
          (xy 12.7 -7.62)
          (xy 12.7 2.54)
        )
        (stroke (width 0.127) (type default) (color 0 0 0 0))
        (fill (type none))
      )
      (polyline
        (pts
          (xy 12.7 -5.08)
          (xy 11.176 -5.08)
        )
        (stroke (width 0.127) (type default) (color 0 0 0 0))
        (fill (type none))
      )
      (polyline
        (pts
          (xy 12.7 2.54)
          (xy 7.62 2.54)
        )
        (stroke (width 0.127) (type default) (color 0 0 0 0))
        (fill (type none))
      )
      (arc (start 9.144 -4.064) (mid 8.636 -4.572) (end 9.144 -5.08)
        (stroke (width 0.127) (type default) (color 0 0 0 0))
        (fill (type none))
      )
      (arc (start 9.144 -3.048) (mid 8.636 -3.556) (end 9.144 -4.064)
        (stroke (width 0.127) (type default) (color 0 0 0 0))
        (fill (type none))
      )
      (arc (start 9.144 -2.032) (mid 8.636 -2.54) (end 9.144 -3.048)
        (stroke (width 0.127) (type default) (color 0 0 0 0))
        (fill (type none))
      )
      (arc (start 9.144 -1.016) (mid 8.636 -1.524) (end 9.144 -2.032)
        (stroke (width 0.127) (type default) (color 0 0 0 0))
        (fill (type none))
      )
      (arc (start 9.144 0) (mid 8.636 -0.508) (end 9.144 -1.016)
        (stroke (width 0.127) (type default) (color 0 0 0 0))
        (fill (type none))
      )
      (arc (start 11.176 -5.08) (mid 11.684 -4.572) (end 11.176 -4.064)
        (stroke (width 0.127) (type default) (color 0 0 0 0))
        (fill (type none))
      )
      (arc (start 11.176 -4.064) (mid 11.684 -3.556) (end 11.176 -3.048)
        (stroke (width 0.127) (type default) (color 0 0 0 0))
        (fill (type none))
      )
      (arc (start 11.176 -3.048) (mid 11.684 -2.54) (end 11.176 -2.032)
        (stroke (width 0.127) (type default) (color 0 0 0 0))
        (fill (type none))
      )
      (arc (start 11.176 -2.032) (mid 11.684 -1.524) (end 11.176 -1.016)
        (stroke (width 0.127) (type default) (color 0 0 0 0))
        (fill (type none))
      )
      (arc (start 11.176 -1.016) (mid 11.684 -0.508) (end 11.176 0)
        (stroke (width 0.127) (type default) (color 0 0 0 0))
        (fill (type none))
      )
      (pin unspecified line (at 0 0 0) (length 7.62)
        (name "1" (effects (font (size 1.4986 1.4986))))
        (number "1" (effects (font (size 1.4986 1.4986))))
      )
      (pin unspecified line (at 0 -2.54 0) (length 7.62)
        (name "2" (effects (font (size 1.4986 1.4986))))
        (number "2" (effects (font (size 1.4986 1.4986))))
      )
      (pin unspecified line (at 0 -5.08 0) (length 7.62)
        (name "3" (effects (font (size 1.4986 1.4986))))
        (number "3" (effects (font (size 1.4986 1.4986))))
      )
      (pin unspecified line (at 20.32 -5.08 180) (length 7.62)
        (name "4" (effects (font (size 1.4986 1.4986))))
        (number "4" (effects (font (size 1.4986 1.4986))))
      )
      (pin unspecified line (at 20.32 -2.54 180) (length 7.62)
        (name "5" (effects (font (size 1.4986 1.4986))))
        (number "5" (effects (font (size 1.4986 1.4986))))
      )
      (pin unspecified line (at 20.32 0 180) (length 7.62)
        (name "6" (effects (font (size 1.4986 1.4986))))
        (number "6" (effects (font (size 1.4986 1.4986))))
      )
    )
  )
  (symbol "78601{slash}1JC" (pin_names (offset 0.254) hide) (in_bom yes) (on_board yes)
    (property "Reference" "XMER" (id 0) (at 10.16 7.62 0)
      (effects (font (size 1.524 1.524)))
    )
    (property "Value" "78601{slash}1JC" (id 1) (at 10.16 5.08 0)
      (effects (font (size 1.524 1.524)))
    )
    (property "Footprint" "786J_MUR" (id 2) (at 10.16 3.556 0)
      (effects (font (size 1.524 1.524)) hide)
    )
    (property "Datasheet" "" (id 3) (at 0 0 0)
      (effects (font (size 1.524 1.524)))
    )
    (property "ki_locked" "" (id 4) (at 0 0 0)
      (effects (font (size 1.27 1.27)))
    )
    (property "ki_fp_filters" "786J_MUR 786J_MUR-M 786J_MUR-L" (id 5) (at 0 0 0)
      (effects (font (size 1.27 1.27)) hide)
    )
    (symbol "78601{slash}1JC_1_1"
      (polyline
        (pts
          (xy 7.62 -7.62)
          (xy 12.7 -7.62)
        )
        (stroke (width 0.127) (type default) (color 0 0 0 0))
        (fill (type none))
      )
      (polyline
        (pts
          (xy 7.62 -5.08)
          (xy 9.144 -5.08)
        )
        (stroke (width 0.127) (type default) (color 0 0 0 0))
        (fill (type none))
      )
      (polyline
        (pts
          (xy 7.62 0)
          (xy 9.144 0)
        )
        (stroke (width 0.127) (type default) (color 0 0 0 0))
        (fill (type none))
      )
      (polyline
        (pts
          (xy 7.62 2.54)
          (xy 7.62 -7.62)
        )
        (stroke (width 0.127) (type default) (color 0 0 0 0))
        (fill (type none))
      )
      (polyline
        (pts
          (xy 9.906 0)
          (xy 9.906 -5.08)
        )
        (stroke (width 0.127) (type default) (color 0 0 0 0))
        (fill (type none))
      )
      (polyline
        (pts
          (xy 10.414 -5.08)
          (xy 10.414 0)
        )
        (stroke (width 0.127) (type default) (color 0 0 0 0))
        (fill (type none))
      )
      (polyline
        (pts
          (xy 11.176 0)
          (xy 12.7 0)
        )
        (stroke (width 0.127) (type default) (color 0 0 0 0))
        (fill (type none))
      )
      (polyline
        (pts
          (xy 12.7 -7.62)
          (xy 12.7 2.54)
        )
        (stroke (width 0.127) (type default) (color 0 0 0 0))
        (fill (type none))
      )
      (polyline
        (pts
          (xy 12.7 -5.08)
          (xy 11.176 -5.08)
        )
        (stroke (width 0.127) (type default) (color 0 0 0 0))
        (fill (type none))
      )
      (polyline
        (pts
          (xy 12.7 2.54)
          (xy 7.62 2.54)
        )
        (stroke (width 0.127) (type default) (color 0 0 0 0))
        (fill (type none))
      )
      (arc (start 9.144 -4.064) (mid 8.636 -4.572) (end 9.144 -5.08)
        (stroke (width 0.127) (type default) (color 0 0 0 0))
        (fill (type none))
      )
      (arc (start 9.144 -3.048) (mid 8.636 -3.556) (end 9.144 -4.064)
        (stroke (width 0.127) (type default) (color 0 0 0 0))
        (fill (type none))
      )
      (arc (start 9.144 -2.032) (mid 8.636 -2.54) (end 9.144 -3.048)
        (stroke (width 0.127) (type default) (color 0 0 0 0))
        (fill (type none))
      )
      (arc (start 9.144 -1.016) (mid 8.636 -1.524) (end 9.144 -2.032)
        (stroke (width 0.127) (type default) (color 0 0 0 0))
        (fill (type none))
      )
      (arc (start 9.144 0) (mid 8.636 -0.508) (end 9.144 -1.016)
        (stroke (width 0.127) (type default) (color 0 0 0 0))
        (fill (type none))
      )
      (arc (start 11.176 -5.08) (mid 11.684 -4.572) (end 11.176 -4.064)
        (stroke (width 0.127) (type default) (color 0 0 0 0))
        (fill (type none))
      )
      (arc (start 11.176 -4.064) (mid 11.684 -3.556) (end 11.176 -3.048)
        (stroke (width 0.127) (type default) (color 0 0 0 0))
        (fill (type none))
      )
      (arc (start 11.176 -3.048) (mid 11.684 -2.54) (end 11.176 -2.032)
        (stroke (width 0.127) (type default) (color 0 0 0 0))
        (fill (type none))
      )
      (arc (start 11.176 -2.032) (mid 11.684 -1.524) (end 11.176 -1.016)
        (stroke (width 0.127) (type default) (color 0 0 0 0))
        (fill (type none))
      )
      (arc (start 11.176 -1.016) (mid 11.684 -0.508) (end 11.176 0)
        (stroke (width 0.127) (type default) (color 0 0 0 0))
        (fill (type none))
      )
      (pin passive line (at 0 0 0) (length 7.62)
        (name "1" (effects (font (size 1.4986 1.4986))))
        (number "1" (effects (font (size 1.4986 1.4986))))
      )
      (pin passive line (at 0 -2.54 0) (length 7.62)
        (name "2" (effects (font (size 1.4986 1.4986))))
        (number "2" (effects (font (size 1.4986 1.4986))))
      )
      (pin passive line (at 0 -5.08 0) (length 7.62)
        (name "3" (effects (font (size 1.4986 1.4986))))
        (number "3" (effects (font (size 1.4986 1.4986))))
      )
      (pin passive line (at 20.32 -5.08 180) (length 7.62)
        (name "4" (effects (font (size 1.4986 1.4986))))
        (number "4" (effects (font (size 1.4986 1.4986))))
      )
      (pin passive line (at 20.32 -2.54 180) (length 7.62)
        (name "5" (effects (font (size 1.4986 1.4986))))
        (number "5" (effects (font (size 1.4986 1.4986))))
      )
      (pin passive line (at 20.32 0 180) (length 7.62)
        (name "6" (effects (font (size 1.4986 1.4986))))
        (number "6" (effects (font (size 1.4986 1.4986))))
      )
    )
  )
)
